{
  "animals": [
    {
      "id": 1,
      "name": "Jack",
      "type": "dog",
      "age": 10,
      "color": "white",
      "favFood": "dogfood",
      "imgUrl": "https://www.randomdoggiegenerator.com/randomdoggie.php"
    },
    {
      "id": 2,
      "name": "Daniels",
      "type": "dog",
      "age": 11,
      "color": "black",
      "favFood": "dogfood",
      "imgUrl": "https://www.randomdoggiegenerator.com/randomdoggie.php"
    },
    {
      "id": 3,
      "name": "Paddy",
      "type": "cat",
      "age": 5,
      "color": "white",
      "favFood": "catfood",
      "imgUrl": "http://www.randomkittengenerator.com/cats/rotator.php"
    },
    {
      "id": 4,
      "name": "Bushmills",
      "type": "cat",
      "age": 6,
      "color": "black",
      "favFood": "catfood",
      "imgUrl": "http://www.randomkittengenerator.com/cats/rotator.php"
    },
    {
      "id": 5,
      "name": "Jameson",
      "type": "cat",
      "age": 7,
      "color": "green",
      "favFood": "wheat",
      "imgUrl": "http://www.randomkittengenerator.com/cats/rotator.php"
    }
  ],
  "adopters": [
    {
      "id": 1,
      "name": "Bai Ivan",
      "age": 70,
      "city": "Plovdiv",
      "gender": "M"
    },
    {
      "id": 2,
      "name": "Selqmsaza",
      "age": 48,
      "city": "Sofia",
      "gender": "M"
    },
    {
      "id": 3,
      "name": "G-n az ne piq",
      "age": 58,
      "city": "Plovdiv",
      "gender": "M"
    }
  ]
}
